TexasPrimary2016: Economic Data - Part 1
…
4 minute read

  Published: 21 Feb, 2017

Here is a look at some of my exploratory graphs from my analysis of the 2016 Texas Presidential Primary economic data. The economic data comes from FRED (Federal Reserve Economic Data) and is actually from 2014.

In this post, I’ll focus on plotting income data against population and unemployment data. In future posts I’ll explore the longer timeline of economic data - stretching back to the 1990’s.

Examining the Data

If you want to know more about the dataset used in this post, you can jump down to the About section at the bottom fo the page. But here is how the data looks:

FRED

## # A tibble: 254 × 5
##    CountyName   UnRate ResPop  PCPI  EMHI
##         <chr>    <dbl>  <dbl> <dbl> <dbl>
## 1    anderson 4.641667 57.742 31815 42471
## 2     andrews 2.983333 17.457 54928 66878
## 3    angelina 5.216667 87.875 37132 42128
## 4     aransas 5.541667 24.933 43292 44551
## 5      archer 4.508333  8.808 52139 58867
## 6   armstrong 3.158333  1.948 43290 55177
## 7    atascosa 4.925000 47.812 37172 52785
## 8      austin 4.750000 28.994 46741 58792
## 9      bailey 5.025000  6.960 44960 36821
## 10    bandera 4.766667 20.916 40868 50107
## # ... with 244 more rows
…
