Plotting the El Niño Southern Oscillation and Lower Tropospheric Temperature Anomalies · A Hugo website
…
Merge Data

With the datasets downloaded and cleansed, they can now be merged into a single, manageable data frame.

# Merge -------------------------------------------------------------------

# - Merge the two datasets.
gccd <- ltta %>%
  inner_join(enso, by = "Date") %>%
  filter(nzchar(SSTA)) %>%
  mutate(SSTA = as.numeric(SSTA))

The resulting data frame should have three columns: Date, LTTA, and SSTA.

## # A tibble: 455 × 3
##          Date  LTTA  SSTA
##        <date> <dbl> <dbl>
## 1  1978-12-01 -0.36   0.0
## 2  1979-01-01 -0.33   0.0
## 3  1979-02-01 -0.27   0.1
## 4  1979-03-01 -0.26   0.2
## 5  1979-04-01 -0.28   0.3
## 6  1979-05-01 -0.27   0.3
## 7  1979-06-01 -0.26   0.1
## 8  1979-07-01 -0.18   0.1
## 9  1979-08-01 -0.28   0.2
## 10 1979-09-01 -0.16   0.3
## # ... with 445 more rows
…
A lagging relationship

The one thing that stands out to me is that LTTA peaks 4 months after an SSTA peak. That is to say - SSTA is a leading indicator or, in other words, changes in LTTA lag changes in SSTA by 4 months.

I can probably match the peaks in SSTA and LTTA better if I were to set lag(gccd$SSTA, n = 4) as my new SSTA dataset.

gccd_SSTA.lag4 <- gccd %>%
  mutate(SSTA = lag(SSTA, 4))

print(gccd_SSTA.lag4)

## # A tibble: 455 × 3
##          Date  LTTA  SSTA
##        <date> <dbl> <dbl>
## 1  1978-12-01 -0.36    NA
## 2  1979-01-01 -0.33    NA
## 3  1979-02-01 -0.27    NA
## 4  1979-03-01 -0.26    NA
## 5  1979-04-01 -0.28   0.0
## 6  1979-05-01 -0.27   0.0
## 7  1979-06-01 -0.26   0.1
## 8  1979-07-01 -0.18   0.2
## 9  1979-08-01 -0.28   0.3
## 10 1979-09-01 -0.16   0.3
## # ... with 445 more rows
…
